…
    ## Warning in .Primitive("as.double")(x, ...): NAs introduced by coercion

    ## Warning in .Primitive("as.double")(x, ...): NAs introduced by coercion

``` r
nkvd_leaders$ethnicity <-all_texts %>% 
  map_chr(3) %>% 
  gsub("^Родился в семье (.+?)\\. (.+?)\\. .*$", "\\2", ., perl = TRUE) # %>%  map(as.factor)

nkvd_leaders %>%
  count(ethnicity, sort = T) 
```

    ## # A tibble: 124 x 2
    ##    ethnicity         n
    ##    <chr>         <int>
    ##  1 Русский         798
    ##  2 Украинец        142
    ##  3 Еврей            47
    ##  4 Белорус          40
    ##  5 Грузин           34
    ##  6 Армянин          34
    ##  7 Узбек            19
    ##  8 Казах            17
    ##  9 Татарин          15
    ## 10 Азербайджанец    11
    ## # ... with 114 more rows
…
